{
  :cookies {
  "ring-session" {
  :value "f7bbb64f-cc7b-4489-a4e8-f8a632d399b5"}},:
remote-addr "127.0.0.1",: params {},:
flash nil,: route-params {},
: headers {"sec-fetch-site" "none", "host" "127.0.0.1:3000", "user-agent" "Mozilla/5.0 (Windows NT 10.0; Win64; x64) AppleWebKit/537.36 (KHTML, like Gecko) Chrome/90.0.4430.72 Safari/537.36", "cookie" "ring-session=f7bbb64f-cc7b-4489-a4e8-f8a632d399b5", "sec-fetch-user" "?1", "connection" "keep-alive", "upgrade-insecure-requests" "1", "accept" "text/html,application/xhtml+xml,application/xml;q=0.9,image/avif,image/webp,image/apng,*/*;q=0.8,application/signed-exchange;v=b3;q=0.9", "accept-language" "en-US,en;q=0.9,es-CL;q=0.8,es;q=0.7", "sec-fetch-dest" "document", "accept-encoding" "gzip, deflate, br", "sec-fetch-mode" "navigate", "dnt" "1", "sec-gpc" "1"},: async-channel #object[org.httpkit.server.AsyncChannel 0x4a18ac86 "/127.0.0.1:3000<->/127.0.0.1:63532"],: server-port 3000,: content-length 0,:form-params {},: compojure/route [: get "/request"],: websocket? false,: session/key "f7bbb64f-cc7b-4489-a4e8-f8a632d399b5", : query-params {},: content-type nil,:character-encoding "utf8",: uri "/request",: server-name "127.0.0.1",: anti-forgery-token "Nx3+Hln6+lU4AriLyD9GUvG5J9lnsDx5jELipBPevoXfsA9AEGTqR8abbTJlg3us5q/dDz3H7dprRJ73",: query-string nil,:body nil,: multipart-params {},: scheme : http,: request-method: get,: session {: ring.middleware.anti-forgery/anti-forgery-token "Nx3+Hln6+lU4AriLyD9GUvG5J9lnsDx5jELipBPevoXfsA9AEGTqR8abbTJlg3us5q/dDz3H7dprRJ73"
}
}